…
                 MR1   MR2   MR3   MR5   MR4
SS loadings    3.854 2.895 2.786 2.441 2.203
Proportion Var 0.133 0.100 0.096 0.084 0.076
Cumulative Var 0.133 0.233 0.329 0.413 0.489

DD$`Factors extracted`

# A tibble: 29 × 6
   Factor   MR1    MR2   MR3   MR5   MR4
   <chr>  <dbl>  <dbl> <dbl> <dbl> <dbl>
 1 1      0.513  0     0     0     0    
 2 10     0      0.631 0     0     0    
 3 11     0     -0.61  0     0     0    
 4 12     0      0     0.74  0     0    
 5 13     0      0     0.792 0     0    
 6 14     0      0     0.72  0     0    
 7 15     0      0     0.594 0     0.452
 8 16     0      0     0     0.667 0    
 9 17     0      0     0     0.527 0    
10 18     0      0     0     0.592 0    
# ℹ 19 more rows
…
